Text Analysis with
…
  + **stemming** reduces a word to its base (or stem), e.g.,
  <br> cats &rarr; cat
  <br> running &rarr; run

---
# Preprocessing: removing stop words

**tidytext** include a dataset of stop words ()

``` r
stop_words
```

```
## # A tibble: 1,149 × 2
##    word        lexicon
##    <chr>       <chr>  
##  1 a           SMART  
##  2 a's         SMART  
##  3 able        SMART  
##  4 about       SMART  
##  5 above       SMART  
##  6 according   SMART  
##  7 accordingly SMART  
##  8 across      SMART  
##  9 actually    SMART  
## 10 after       SMART  
## # ℹ 1,139 more rows
```
…
