Introduction to
…
```
##         hp sd_hp
## 1 146.6875    NA
```

* `ungroup()` will apply functions to the entire data set

``` r
> mtcars |> select(mpg, hp, cyl) |>
+   group_by(cyl) |> mutate(mu_mpg = mean(mpg)) |> 
+   ungroup() |> mutate(grand_mu_mpg = mean(mpg))
```

```
## # A tibble: 32 × 5
##      mpg    hp   cyl mu_mpg grand_mu_mpg
##    <dbl> <dbl> <dbl>  <dbl>        <dbl>
##  1  21     110     6   19.7         20.1
##  2  21     110     6   19.7         20.1
##  3  22.8    93     4   26.7         20.1
##  4  21.4   110     6   19.7         20.1
##  5  18.7   175     8   15.1         20.1
##  6  18.1   105     6   19.7         20.1
##  7  14.3   245     8   15.1         20.1
##  8  24.4    62     4   26.7         20.1
##  9  22.8    95     4   26.7         20.1
## 10  19.2   123     6   19.7         20.1
## # ℹ 22 more rows
```
…
